<svg width="477" height="77" viewBox="0 0 477 77" fill="none" xmlns="http://www.w3.org/2000/svg">
<path d="M105.432 16.136C112.045 16.136 117.123 17.3093 120.664 19.656C124.205 21.96 125.976 25.7573 125.976 31.048C125.976 36.3813 124.184 40.2427 120.6 42.632C117.016 44.9787 111.896 46.152 105.24 46.152H102.104V61H92.12V17.288C94.296 16.8613 96.6 16.5627 99.032 16.392C101.464 16.2213 103.597 16.136 105.432 16.136ZM106.072 24.648C105.347 24.648 104.621 24.6693 103.896 24.712C103.213 24.7547 102.616 24.7973 102.104 24.84V37.64H105.24C108.696 37.64 111.299 37.1707 113.048 36.232C114.797 35.2933 115.672 33.544 115.672 30.984C115.672 29.7467 115.437 28.7227 114.968 27.912C114.541 27.1013 113.901 26.4613 113.048 25.992C112.237 25.48 111.235 25.1387 110.04 24.968C108.845 24.7547 107.523 24.648 106.072 24.648ZM130.13 44.424C130.13 41.4373 130.578 38.8347 131.474 36.616C132.413 34.3547 133.629 32.4773 135.122 30.984C136.615 29.4907 138.322 28.36 140.242 27.592C142.205 26.824 144.21 26.44 146.258 26.44C151.037 26.44 154.813 27.912 157.586 30.856C160.359 33.7573 161.746 38.0453 161.746 43.72C161.746 44.2747 161.725 44.8933 161.682 45.576C161.639 46.216 161.597 46.792 161.554 47.304H139.922C140.135 49.2667 141.053 50.824 142.674 51.976C144.295 53.128 146.471 53.704 149.202 53.704C150.951 53.704 152.658 53.5547 154.322 53.256C156.029 52.9147 157.415 52.5093 158.482 52.04L159.762 59.784C159.25 60.04 158.567 60.296 157.714 60.552C156.861 60.808 155.901 61.0213 154.834 61.192C153.81 61.4053 152.701 61.576 151.506 61.704C150.311 61.832 149.117 61.896 147.922 61.896C144.893 61.896 142.247 61.448 139.986 60.552C137.767 59.656 135.911 58.44 134.418 56.904C132.967 55.3253 131.879 53.4693 131.154 51.336C130.471 49.2027 130.13 46.8987 130.13 44.424ZM152.53 40.776C152.487 39.9653 152.338 39.176 152.082 38.408C151.869 37.64 151.506 36.9573 150.994 36.36C150.525 35.7627 149.906 35.272 149.138 34.888C148.413 34.504 147.495 34.312 146.386 34.312C145.319 34.312 144.402 34.504 143.634 34.888C142.866 35.2293 142.226 35.6987 141.714 36.296C141.202 36.8933 140.797 37.5973 140.498 38.408C140.242 39.176 140.05 39.9653 139.922 40.776H152.53ZM168.785 18.952L178.321 17.416V27.336H189.777V35.272H178.321V47.112C178.321 49.1173 178.662 50.7173 179.345 51.912C180.07 53.1067 181.5 53.704 183.633 53.704C184.657 53.704 185.702 53.6187 186.769 53.448C187.878 53.2347 188.881 52.9573 189.777 52.616L191.121 60.04C189.969 60.5093 188.689 60.9147 187.281 61.256C185.873 61.5973 184.145 61.768 182.097 61.768C179.494 61.768 177.34 61.4267 175.633 60.744C173.926 60.0187 172.561 59.0373 171.537 57.8C170.513 56.52 169.788 54.984 169.361 53.192C168.977 51.4 168.785 49.416 168.785 47.24V18.952ZM226.279 59.848C224.657 60.3173 222.567 60.744 220.007 61.128C217.447 61.5547 214.759 61.768 211.943 61.768C209.084 61.768 206.695 61.384 204.775 60.616C202.897 59.848 201.404 58.7813 200.295 57.416C199.185 56.008 198.396 54.344 197.927 52.424C197.457 50.504 197.223 48.392 197.223 46.088V27.336H206.759V44.936C206.759 48.008 207.164 50.2267 207.975 51.592C208.785 52.9573 210.3 53.64 212.519 53.64C213.201 53.64 213.927 53.6187 214.695 53.576C215.463 53.4907 216.145 53.4053 216.743 53.32V27.336H226.279V59.848ZM248.094 54.344C249.033 54.344 249.929 54.3227 250.782 54.28C251.635 54.2373 252.318 54.1733 252.83 54.088V46.856C252.446 46.7707 251.87 46.6853 251.102 46.6C250.334 46.5147 249.63 46.472 248.99 46.472C248.094 46.472 247.241 46.536 246.43 46.664C245.662 46.7493 244.979 46.9413 244.382 47.24C243.785 47.5387 243.315 47.944 242.974 48.456C242.633 48.968 242.462 49.608 242.462 50.376C242.462 51.8693 242.953 52.9147 243.934 53.512C244.958 54.0667 246.345 54.344 248.094 54.344ZM247.326 26.44C250.142 26.44 252.489 26.76 254.366 27.4C256.243 28.04 257.737 28.9573 258.846 30.152C259.998 31.3467 260.809 32.7973 261.278 34.504C261.747 36.2107 261.982 38.1093 261.982 40.2V60.04C260.617 60.3387 258.718 60.68 256.286 61.064C253.854 61.4907 250.91 61.704 247.454 61.704C245.278 61.704 243.294 61.512 241.502 61.128C239.753 60.744 238.238 60.1253 236.958 59.272C235.678 58.376 234.697 57.224 234.014 55.816C233.331 54.408 232.99 52.68 232.99 50.632C232.99 48.6693 233.374 47.0053 234.142 45.64C234.953 44.2747 236.019 43.1867 237.342 42.376C238.665 41.5653 240.179 40.9893 241.886 40.648C243.593 40.264 245.363 40.072 247.198 40.072C248.435 40.072 249.523 40.136 250.462 40.264C251.443 40.3493 252.233 40.4773 252.83 40.648V39.752C252.83 38.1307 252.339 36.8293 251.358 35.848C250.377 34.8667 248.67 34.376 246.238 34.376C244.617 34.376 243.017 34.504 241.438 34.76C239.859 34.9733 238.494 35.2933 237.342 35.72L236.126 28.04C236.681 27.8693 237.363 27.6987 238.174 27.528C239.027 27.3147 239.945 27.144 240.926 27.016C241.907 26.8453 242.931 26.7173 243.998 26.632C245.107 26.504 246.217 26.44 247.326 26.44ZM284.045 61.64C281.272 61.5973 279.01 61.2987 277.261 60.744C275.554 60.1893 274.189 59.4213 273.165 58.44C272.184 57.416 271.501 56.2 271.117 54.792C270.776 53.3413 270.605 51.72 270.605 49.928V12.872L280.141 11.336V48.008C280.141 48.8613 280.205 49.6293 280.333 50.312C280.461 50.9947 280.696 51.5707 281.037 52.04C281.421 52.5093 281.954 52.8933 282.637 53.192C283.32 53.4907 284.237 53.6827 285.389 53.768L284.045 61.64ZM304.657 54.344C305.595 54.344 306.491 54.3227 307.345 54.28C308.198 54.2373 308.881 54.1733 309.393 54.088V46.856C309.009 46.7707 308.433 46.6853 307.665 46.6C306.897 46.5147 306.193 46.472 305.553 46.472C304.657 46.472 303.803 46.536 302.993 46.664C302.225 46.7493 301.542 46.9413 300.945 47.24C300.347 47.5387 299.878 47.944 299.537 48.456C299.195 48.968 299.025 49.608 299.025 50.376C299.025 51.8693 299.515 52.9147 300.497 53.512C301.521 54.0667 302.907 54.344 304.657 54.344ZM303.889 26.44C306.705 26.44 309.051 26.76 310.929 27.4C312.806 28.04 314.299 28.9573 315.409 30.152C316.561 31.3467 317.371 32.7973 317.841 34.504C318.31 36.2107 318.545 38.1093 318.545 40.2V60.04C317.179 60.3387 315.281 60.68 312.849 61.064C310.417 61.4907 307.473 61.704 304.017 61.704C301.841 61.704 299.857 61.512 298.065 61.128C296.315 60.744 294.801 60.1253 293.521 59.272C292.241 58.376 291.259 57.224 290.577 55.816C289.894 54.408 289.553 52.68 289.553 50.632C289.553 48.6693 289.937 47.0053 290.705 45.64C291.515 44.2747 292.582 43.1867 293.905 42.376C295.227 41.5653 296.742 40.9893 298.449 40.648C300.155 40.264 301.926 40.072 303.76 40.072C304.998 40.072 306.086 40.136 307.025 40.264C308.006 40.3493 308.795 40.4773 309.393 40.648V39.752C309.393 38.1307 308.902 36.8293 307.921 35.848C306.939 34.8667 305.233 34.376 302.801 34.376C301.179 34.376 299.579 34.504 298.001 34.76C296.422 34.9733 295.057 35.2933 293.905 35.72L292.689 28.04C293.243 27.8693 293.926 27.6987 294.737 27.528C295.59 27.3147 296.507 27.144 297.489 27.016C298.47 26.8453 299.494 26.7173 300.561 26.632C301.67 26.504 302.779 26.44 303.889 26.44ZM327.168 28.488C328.789 28.0187 330.88 27.592 333.44 27.208C336 26.7813 338.688 26.568 341.503 26.568C344.362 26.568 346.73 26.952 348.608 27.72C350.528 28.4453 352.042 29.4907 353.152 30.856C354.261 32.2213 355.05 33.8427 355.52 35.72C355.989 37.5973 356.224 39.688 356.224 41.992V61H346.688V43.144C346.688 40.072 346.282 37.896 345.472 36.616C344.661 35.336 343.146 34.696 340.928 34.696C340.245 34.696 339.52 34.7387 338.752 34.824C337.984 34.8667 337.301 34.9307 336.704 35.016V61H327.168V28.488ZM372.983 43.08C372.983 48.4133 375.138 51.08 379.447 51.08C380.428 51.08 381.346 50.952 382.199 50.696C383.052 50.44 383.778 50.1413 384.375 49.8V34.568C383.906 34.4827 383.351 34.4187 382.711 34.376C382.071 34.2907 381.324 34.248 380.471 34.248C377.954 34.248 376.076 35.08 374.839 36.744C373.602 38.408 372.983 40.52 372.983 43.08ZM393.911 56.776C393.911 62.28 392.503 66.3547 389.687 69C386.914 71.688 382.604 73.032 376.759 73.032C374.711 73.032 372.663 72.84 370.615 72.456C368.567 72.1147 366.668 71.6453 364.919 71.048L366.583 63.048C368.076 63.6453 369.634 64.1147 371.255 64.456C372.919 64.7973 374.796 64.968 376.887 64.968C379.618 64.968 381.538 64.3707 382.647 63.176C383.799 61.9813 384.375 60.4453 384.375 58.568V57.352C383.351 57.8213 382.284 58.184 381.175 58.44C380.108 58.6533 378.935 58.76 377.655 58.76C373.004 58.76 369.442 57.3947 366.967 54.664C364.492 51.8907 363.255 48.0293 363.255 43.08C363.255 40.6053 363.639 38.3653 364.407 36.36C365.175 34.312 366.284 32.5627 367.735 31.112C369.228 29.6613 371.042 28.552 373.175 27.784C375.308 26.9733 377.719 26.568 380.407 26.568C381.559 26.568 382.732 26.632 383.927 26.76C385.164 26.8453 386.38 26.9733 387.575 27.144C388.77 27.3147 389.9 27.528 390.967 27.784C392.076 27.9973 393.058 28.232 393.911 28.488V56.776ZM412.391 39.496C413.33 38.472 414.29 37.4053 415.271 36.296C416.295 35.1867 417.276 34.0987 418.215 33.032C419.154 31.9227 420.028 30.8773 420.839 29.896C421.692 28.9147 422.418 28.0613 423.015 27.336H434.343C432.082 29.9387 429.863 32.4347 427.687 34.824C425.554 37.1707 423.207 39.6027 420.647 42.12C421.927 43.272 423.25 44.6587 424.615 46.28C425.98 47.8587 427.303 49.5013 428.583 51.208C429.863 52.9147 431.036 54.6213 432.103 56.328C433.17 58.0347 434.066 59.592 434.791 61H423.847C423.164 59.8907 422.375 58.6747 421.479 57.352C420.626 55.9867 419.708 54.6427 418.727 53.32C417.746 51.9547 416.7 50.6533 415.591 49.416C414.524 48.1787 413.458 47.1333 412.391 46.28V61H402.855V12.872L412.391 11.336V39.496ZM468.029 59.848C466.407 60.3173 464.317 60.744 461.757 61.128C459.197 61.5547 456.509 61.768 453.693 61.768C450.834 61.768 448.445 61.384 446.525 60.616C444.647 59.848 443.154 58.7813 442.045 57.416C440.935 56.008 440.146 54.344 439.677 52.424C439.207 50.504 438.973 48.392 438.973 46.088V27.336H448.509V44.936C448.509 48.008 448.914 50.2267 449.725 51.592C450.535 52.9573 452.05 53.64 454.269 53.64C454.951 53.64 455.677 53.6187 456.445 53.576C457.213 53.4907 457.895 53.4053 458.493 53.32V27.336H468.029V59.848Z" fill="#FFFCF6"/>
<path d="M33.0959 10L6 58H33.0959V28.2535C33.0959 28.2535 46.5044 58 67 58" stroke="#FFFCF6" stroke-width="6" stroke-linecap="round"/>
</svg>
