{
  "type": "service_account",
  "project_id": "petualanganku-91d25",
  "private_key_id": "8594d5d5bb9ede54d82c7e5a64b2c39ecc431d14",
  "private_key": "-----BEGIN PRIVATE KEY-----\nMIIEvQIBADANBgkqhkiG9w0BAQEFAASCBKcwggSjAgEAAoIBAQCOZ6EmJmUJ90b6\nv28e59SOSI/SMf8P40ofaK73x2NyR6//5vwm6i4Nb4nyLmngykrte1IFitNDrj1f\npx++vQ25/9dHCEdGjKyN5ZSYRqP5chWH+n8Ibv49Wj1Lxokwek54FLrPFaZppUfN\nar+OXhLP6ptWPk7ZH+YH9GkJTu2ljhk0ghx9zXQHtEEifpJW9+L+aWUn45F3jvMi\nhIIMJ2qYT9UQytYN+dYT2hvrlnz8JI1ud4sFlwag+dHQxZS4EVrEfd5GAfdqVhRL\n6W+eo7wtTl32MOMi6akqQg0Sxf4sa3F07gnqjsXvn4g8IVF62kiR2Q9fw94Xhw3x\nh9wIRWlfAgMBAAECggEAAQAIxBgamshCFxUT4uEuRnxu+iaq9mxvu+OEDNjkCL5F\nJeR0PiCdB6GuvoFpDi0p+3Ecj6NK6KnVci4lIqdOCPxwneXuCqpNtJvdHLFXNHqQ\n6uyCvHHtVqFN5QO8VXsa3aVeSrqX61UHAJINMSLyHW7uxOmSHWrSb2AzV4odwmKd\nJA0mX2wYeyXRyJk/02XDCHXWEnJwLlWFQPaxyM0q1aSYFDB8q34NYYJ6TTjiRVfH\n9SNQItvLdQ3r7i8MLVMhIyVfXoVtNDjmkcxJ2cebtJF5wqwy6e4gYljAjTZjX9nT\n6GPLcBpXM6ChD/Xs3IkY88BjzVe6V/8ymoyXBaQnwQKBgQDFmOFQB3fP3icOHutq\nDCaZjnSuwdPfqGtSmyCC5F2xi1I3p5b4t7tgMH/38gk/EdL0i+YEWsX9LNec1SNl\nLSVN+oaX4ZBhzD23KW/MrguBeWqNTuyr3MiB7glsi0laJc32rha0kV1u0vNaSsG3\ntIGFwHjBE+zzewxxfUXuYmjjQQKBgQC4fqMwcWCaO14lpjXCnS1P/O3VujmditUg\nByA4afhWAC0jWxtY2j7XCBusr3HmYBPg/K6qgfHE2T3O9Pi4GHSVdRx4G0Oqo5Fj\nY7CN69voKll7WdMjdSK9W8lC1ORaGwUQfGp6g+0JwhPVXd4T0U7RfH3A/QeiLpv1\nDzO8owNEnwKBgA7J72sW8/+px9CFvebU+/qYL+F4fkwKBeZL1/YT83M7Uy75KxJ4\nZdzAJIPBKLIAuoI1CkUfKhxVw9loFlsXMuiQLIynhC/domzX/Bccm53YIYJr+siu\nII+g6jGmhxnpJG4m/2oKSyzlOvNyDueZ6evByQfiXuSmO/sufhJmaSVBAoGAL8Iw\nckjXLfWyUGKvRfq0ESGzW4FCiuK2evz9PT1JWNHg3WcnNCAC5l0l9NTR0kYKv1IJ\n0P+kW0W1N06418cU3t+bCAhewtxmtWjH+mUU3wufcEv3WRVoccZB2jgMCLs322Wp\nlp9yC/Wedrw+0bh8A8SLNRsLD9Oq8YwG44z7OpcCgYEAs19oem0UJA1MSOSa4qeA\n/BUMyNFX7HlQ48QPe/W2/Vv7iah4Xkw7ssIes4PBbr9K4vJt/AezDxmxKzJuj8P1\n/LQKdnnY2dedQlCzXvBt8WNAKyht4+Msup8MGtAsyHOKJPXOpDAllIK+6COlYrLd\nQZ8pbTLwkHO3ZY0nyX2N9ek=\n-----END PRIVATE KEY-----\n",
  "client_email": "firebase-adminsdk-mx7u0@petualanganku-91d25.iam.gserviceaccount.com",
  "client_id": "108226949243163271099",
  "auth_uri": "https://accounts.google.com/o/oauth2/auth",
  "token_uri": "https://oauth2.googleapis.com/token",
  "auth_provider_x509_cert_url": "https://www.googleapis.com/oauth2/v1/certs",
  "client_x509_cert_url": "https://www.googleapis.com/robot/v1/metadata/x509/firebase-adminsdk-mx7u0%40petualanganku-91d25.iam.gserviceaccount.com"
}
